{
  "LuaSnip": { "branch": "master", "commit": "03c8e67eb7293c404845b3982db895d59c0d1538" },
  "cmp-buffer": { "branch": "main", "commit": "3022dbc9166796b644a841a02de8dd1cc1d311fa" },
  "cmp-nvim-lsp": { "branch": "main", "commit": "99290b3ec1322070bcfb9e846450a46f6efa50f0" },
  "cmp-path": { "branch": "main", "commit": "91ff86cd9c29299a64f968ebb45846c485725f23" },
  "cmp_luasnip": { "branch": "master", "commit": "98d9cb5c2c38532bd9bdb481067b20fea8f32e90" },
  "friendly-snippets": { "branch": "main", "commit": "efff286dd74c22f731cdec26a70b46e5b203c619" },
  "fzf": { "branch": "master", "commit": "7220d8233e81291db8bda3d4eb5286ca45f07be0" },
  "fzf.vim": { "branch": "master", "commit": "556f45e79ae5e3970054fee4c4373472604a1b4e" },
  "lazy.nvim": { "branch": "main", "commit": "d8f26efd456190241afd1b0f5235fe6fdba13d4a" },
  "mason-lspconfig.nvim": { "branch": "main", "commit": "e942edf5c85b6a2ab74059ea566cac5b3e1514a4" },
  "mason.nvim": { "branch": "main", "commit": "e2f7f9044ec30067bc11800a9e266664b88cda22" },
  "monokai-pro.nvim": { "branch": "master", "commit": "6c15e36834a624a32f46c6db8f9fc063995b24b6" },
  "nerdcommenter": { "branch": "master", "commit": "66c07e4083ab02ed2540ac289cc602c70b858c13" },
  "nvim-autopairs": { "branch": "master", "commit": "3d02855468f94bf435db41b661b58ec4f48a06b7" },
  "nvim-cmp": { "branch": "main", "commit": "12509903a5723a876abd65953109f926f4634c30" },
  "nvim-cmp-lsp-rs": { "branch": "main", "commit": "57f29333e6d2b655d5b0edb999b0006d49fde0ca" },
  "nvim-lspconfig": { "branch": "master", "commit": "b4d65bce97795438ab6e1974b3672c17a4865e3c" },
  "nvim-treesitter": { "branch": "master", "commit": "f3d7c0dafcbc86c4d63f765649c884a03bc1360a" },
  "rust.vim": { "branch": "master", "commit": "889b9a7515db477f4cb6808bef1769e53493c578" },
  "undotree": { "branch": "master", "commit": "2556c6800b210b2096b55b66e74b4cc1d9ebbe4f" },
  "vim-airline": { "branch": "master", "commit": "7a552f415c48aed33bf7eaa3c50e78504d417913" },
  "vim-airline-themes": { "branch": "master", "commit": "cda3b5ea087f7e301a3d4e61727108f66ba6dd20" },
  "vim-fugitive": { "branch": "master", "commit": "d74a7cff4cfcf84f83cc7eccfa365488f3bbabc2" },
  "vim-gitgutter": { "branch": "main", "commit": "7b0b5098e3e57be86bb96cfbf2b8902381eef57c" },
  "vim-go": { "branch": "master", "commit": "6adc82bfef7f9a4b0db78065ae51b8ebb145c355" },
  "vim-matchup": { "branch": "master", "commit": "aca23ce53ebfe34e02c4fe07e29e9133a2026481" },
  "vim-sleuth": { "branch": "master", "commit": "be69bff86754b1aa5adcbb527d7fcd1635a84080" },
  "vim-smali": { "branch": "master", "commit": "012c21565e6be8f1718ad634aa84730a0a84b42c" },
  "vim-surround": { "branch": "master", "commit": "3d188ed2113431cf8dac77be61b842acb64433d9" },
  "vim-toml": { "branch": "main", "commit": "d36caa6b1cf508a4df1c691f915572fc02143258" }
}
